{
"@context": {
   "geo": "http://www.w3.org/2003/01/geo/wgs84_pos#",
   "rdfs": "http://www.w3.org/2000/01/rdf-schema#",
   "foaf":"http://xmlns.com/foaf/0.1/",
   "xsd":"http://www.w3.org/2001/XMLSchema#",

   "titre" : "rdfs:label",
   "soustitre" : "rdfs:comment",
   "href" : {
     "@id": "rdfs:seeAlso",
     "@type": "@id"
   }
 }
}
